/home/miguel/NetBeansProjects/mooc-java-programming-ii/part11-Part11_06.SaveablePerson/src/main/java/Saveable.java
/home/miguel/NetBeansProjects/mooc-java-programming-ii/part11-Part11_06.SaveablePerson/src/main/java/Person.java
/home/miguel/NetBeansProjects/mooc-java-programming-ii/part11-Part11_06.SaveablePerson/src/main/java/Program.java
