/home/miguel/NetBeansProjects/mooc-java-programming-ii/part13-Part13_12.VocabularyPractice/src/main/java/application/PracticeView.java
/home/miguel/NetBeansProjects/mooc-java-programming-ii/part13-Part13_12.VocabularyPractice/src/main/java/application/VocabularyPracticeApplication.java
/home/miguel/NetBeansProjects/mooc-java-programming-ii/part13-Part13_12.VocabularyPractice/src/main/java/application/Dictionary.java
/home/miguel/NetBeansProjects/mooc-java-programming-ii/part13-Part13_12.VocabularyPractice/src/main/java/application/InputView.java
