/home/miguel/NetBeansProjects/mooc-java-programming-ii/part09-Part09_06.InterfaceInABox/src/main/java/Packable.java
/home/miguel/NetBeansProjects/mooc-java-programming-ii/part09-Part09_06.InterfaceInABox/src/main/java/Main.java
/home/miguel/NetBeansProjects/mooc-java-programming-ii/part09-Part09_06.InterfaceInABox/src/main/java/Box.java
/home/miguel/NetBeansProjects/mooc-java-programming-ii/part09-Part09_06.InterfaceInABox/src/main/java/CD.java
/home/miguel/NetBeansProjects/mooc-java-programming-ii/part09-Part09_06.InterfaceInABox/src/main/java/Book.java
