/home/miguel/NetBeansProjects/mooc-java-programming-ii/part09-Part09_01.ABC/src/main/java/B.java
/home/miguel/NetBeansProjects/mooc-java-programming-ii/part09-Part09_01.ABC/src/main/java/A.java
/home/miguel/NetBeansProjects/mooc-java-programming-ii/part09-Part09_01.ABC/src/main/java/C.java
/home/miguel/NetBeansProjects/mooc-java-programming-ii/part09-Part09_01.ABC/src/main/java/Main.java
