/home/miguel/NetBeansProjects/mooc-java-programming-ii/part09-Part09_11.Herds/src/main/java/Movable.java
/home/miguel/NetBeansProjects/mooc-java-programming-ii/part09-Part09_11.Herds/src/main/java/Organism.java
/home/miguel/NetBeansProjects/mooc-java-programming-ii/part09-Part09_11.Herds/src/main/java/MainProgram.java
/home/miguel/NetBeansProjects/mooc-java-programming-ii/part09-Part09_11.Herds/src/main/java/Herd.java
