/home/miguel/NetBeansProjects/mooc-java-programming-ii/part11-Part11_04.StudentAndUniversity/src/main/java/Program.java
/home/miguel/NetBeansProjects/mooc-java-programming-ii/part11-Part11_04.StudentAndUniversity/src/main/java/Student.java
/home/miguel/NetBeansProjects/mooc-java-programming-ii/part11-Part11_04.StudentAndUniversity/src/main/java/University.java
